{
  /**
   * General configuration of Orthanc
   **/

  // The logical name of this instance of Orthanc. This one is
  // displayed in Orthanc Explorer and at the URI "/system".
  "Name" : "OrthancWADQC",

  // Path to the directory that holds the heavyweight files
  // (i.e. the raw DICOM instances)
  "StorageDirectory" : "__DEVROOT__/orthanc/db",

  // Path to the directory that holds the SQLite index (if unset,
  // the value of StorageDirectory is used). This index could be
  // stored on a RAM-drive or a SSD device for performance reasons.
  "IndexDirectory" : "__DEVROOT__/orthanc/db",

  // Enable the transparent compression of the DICOM instances
  "StorageCompression" : false,

  // Maximum size of the storage in MB (a value of "0" indicates no
  // limit on the storage size)
  "MaximumStorageSize" : 0,

  // Maximum number of patients that can be stored at a given time
  // in the storage (a value of "0" indicates no limit on the number
  // of patients)
  "MaximumPatientCount" : 0,
  
  // List of paths to the custom Lua scripts that are to be loaded
  // into this instance of Orthanc
  "LuaScripts" : [
    "__DEVROOT__/orthanc/lua/wad_onstablestudy.lua"                                                                                                           
  ],

  // List of paths to the plugins that are to be loaded into this
  // instance of Orthanc (e.g. "./libPluginTest.so" for Linux, or
  // "./PluginTest.dll" for Windows). These paths can refer to
  // folders, in which case they will be scanned non-recursively to
  // find shared libraries.
  "Plugins" : [ 
    "__DEVROOT__/orthanc/plugins"
  ],



  /**
   * Configuration of the HTTP server
   **/

  // Enable the HTTP server. If this parameter is set to "false",
  // Orthanc acts as a pure DICOM server. The REST API and Orthanc
  // Explorer will not be available.
  "HttpServerEnabled" : true,

  // HTTP port for the REST services and for the GUI
  "HttpPort" : __RESTPORT__,

  // When the following option is "true", if an error is encountered
  // while calling the REST API, a JSON message describing the error
  // is put in the HTTP answer. This feature can be disabled if the
  // HTTP client does not properly handles such answers.
  "HttpDescribeErrors" : true,

  // Enable HTTP compression to improve network bandwidth utilization,
  // at the expense of more computations on the server. Orthanc
  // supports the "gzip" and "deflate" HTTP encodings.
  "HttpCompressionEnabled" : true,



  /**
   * Configuration of the DICOM server
   **/

  // Enable the DICOM server. If this parameter is set to "false",
  // Orthanc acts as a pure REST server. It will not be possible to
  // receive files or to do query/retrieve through the DICOM protocol.
  "DicomServerEnabled" : true,

  // The DICOM Application Entity Title
  "DicomAet" : "WADQC",

  // Check whether the called AET corresponds during a DICOM request
  "DicomCheckCalledAet" : false,

  // The DICOM port
  "DicomPort" : __PACSPORT__,

  // The default encoding that is assumed for DICOM files without
  // "SpecificCharacterSet" DICOM tag. The allowed values are "Ascii",
  // "Utf8", "Latin1", "Latin2", "Latin3", "Latin4", "Latin5",
  // "Cyrillic", "Windows1251", "Arabic", "Greek", "Hebrew", "Thai",
  // "Japanese", and "Chinese".
  "DefaultEncoding" : "Latin1",

  // The transfer syntaxes that are accepted by Orthanc C-Store SCP
  // Disable Jpeg2000, as we cannot decode them
  "DeflatedTransferSyntaxAccepted"     : true,
  "JpegTransferSyntaxAccepted"         : true,
  "Jpeg2000TransferSyntaxAccepted"     : false,
  "JpegLosslessTransferSyntaxAccepted" : true,
  "JpipTransferSyntaxAccepted"         : true,
  "Mpeg2TransferSyntaxAccepted"        : true,
  "RleTransferSyntaxAccepted"          : true,

  // Whether Orthanc accepts to act as C-Store SCP for unknown storage
  // SOP classes (aka. "promiscuous mode")
  "UnknownSopClassAccepted"            : false,


  /**
   * Security-related options for the HTTP server
   **/

  // Whether remote hosts can connect to the HTTP server
  "RemoteAccessAllowed" : true,

  // Whether or not SSL is enabled
  "SslEnabled" : false,

  // Path to the SSL certificate (meaningful only if SSL is enabled)
  "SslCertificate" : "certificate.pem",

  // Whether or not the password protection is enabled
  "AuthenticationEnabled" : true,

  // The list of the registered users. Because Orthanc uses HTTP
  // Basic Authentication, the passwords are stored as plain text.
  "RegisteredUsers" : {
    "orthanc" : "__PACSPSWD__"
    // "alice" : "alicePassword"
  },



  /**
   * Network topology
   **/

  // The list of the known DICOM modalities
  "DicomModalities" : {
    /**
     * Uncommenting the following line would enable Orthanc to
     * connect to an instance of the "storescp" open-source DICOM
     * store (shipped in the DCMTK distribution) started by the
     * command line "storescp 2000".
     **/
    // "sample" : [ "STORESCP", "localhost", 2000 ]

    /**
     * A fourth parameter is available to enable patches for a
     * specific PACS manufacturer. The allowed values are currently
     * "Generic" (default value), "StoreScp" (storescp tool from
     * DCMTK), "ClearCanvas", "MedInria", "Dcm4Chee" and
     * "SyngoVia". This parameter is case-sensitive.
     **/
    // "clearcanvas" : [ "CLEARCANVAS", "192.168.1.1", 104, "ClearCanvas" ]
     "WADQC" : [ "WADQC", "localhost", __PACSPORT__ ]
  },

  // The list of the known Orthanc peers
  "OrthancPeers" : {
    /**
     * Each line gives the base URL of an Orthanc peer, possibly
     * followed by the username/password pair (if the password
     * protection is enabled on the peer).
     **/
    // "peer"  : [ "http://localhost:8043/", "alice", "alicePassword" ]
    // "peer2" : [ "http://localhost:8044/" ]
  },

  // Parameters of the HTTP proxy to be used by Orthanc. If set to the
  // empty string, no HTTP proxy is used. For instance:
  //   "HttpProxy" : "192.168.0.1:3128"
  //   "HttpProxy" : "proxyUser:proxyPassword@192.168.0.1:3128"
  "HttpProxy" : "",

  // Set the timeout for HTTP requests issued by Orthanc (in seconds).
  "HttpTimeout" : 10,

  // Enable the verification of the peers during HTTPS requests.
  // Reference: http://curl.haxx.se/docs/sslcerts.html
  "HttpsVerifyPeers" : true,

  // Path to the CA (certification authority) certificates to validate
  // peers in HTTPS requests. From curl documentation ("--cacert"
  // option): "Tells curl to use the specified certificate file to
  // verify the peers. The file may contain multiple CA
  // certificates. The certificate(s) must be in PEM format."
  "HttpsCACertificates" : "",



  /**
   * Advanced options
   **/

  // Dictionary of symbolic names for the user-defined metadata. Each
  // entry must map a number between 1024 and 65535 to an unique
  // string.
  "UserMetadata" : {
    // "Sample" : 1024
  },

  // Dictionary of symbolic names for the user-defined types of
  // attached files. Each entry must map a number between 1024 and
  // 65535 to an unique string.
  "UserContentType" : {
    // "sample" : 1024
  },

  // Number of seconds without receiving any instance before a
  // patient, a study or a series is considered as stable.
  "StableAge" : 15,

  // By default, Orthanc compares AET (Application Entity Titles) in a
  // case-insensitive way. Setting this option to "true" will enable
  // case-sensitive matching.
  "StrictAetComparison" : false,

  // When the following option is "true", the MD5 of the DICOM files
  // will be computed and stored in the Orthanc database. This
  // information can be used to detect disk corruption, at the price
  // of a small performance overhead.
  "StoreMD5ForAttachments" : true,

  // The maximum number of results for a single C-FIND request at the
  // Patient, Study or Series level. Setting this option to "0" means
  // no limit.
  "LimitFindResults" : 0,

  // The maximum number of results for a single C-FIND request at the
  // Instance level. Setting this option to "0" means no limit.
  "LimitFindInstances" : 0,

  // The maximum number of active jobs in the Orthanc scheduler. When
  // this limit is reached, the addition of new jobs is blocked until
  // some job finishes.
  "LimitJobs" : 10,

  // If this option is set to "false", Orthanc will not log the
  // resources that are exported to other DICOM modalities of Orthanc
  // peers in the URI "/exports". This is useful to prevent the index
  // to grow indefinitely in auto-routing tasks.
  "LogExportedResources" : true,

  // Enable or disable HTTP Keep-Alive (deprecated). Set this option
  // to "true" only in the case of high HTTP loads.
  "KeepAlive" : false,

  // If this option is set to "false", Orthanc will run in index-only
  // mode. The DICOM files will not be stored on the drive.
  "StoreDicom" : true,

  // DICOM associations are kept open as long as new DICOM commands
  // are issued. This option sets the number of seconds of inactivity
  // to wait before automatically closing a DICOM association. If set
  // to 0, the connection is closed immediately.
  "DicomAssociationCloseDelay" : 5,

  // Maximum number of query/retrieve DICOM requests that are
  // maintained by Orthanc. The least recently used requests get
  // deleted as new requests are issued.
  "QueryRetrieveSize" : 10,

  // When handling a C-Find SCP request, setting this flag to "false"
  // will enable case-insensitive match for PN value representation
  // (such as PatientName). By default, the search is case-insensitive.
  "CaseSensitivePN" : false,
  
  // enabling PostgreSQL backend (override default sqlite)
  // By design the EnableStorage option is turned off, so that the dcm files themselves are not stored
  // in the database, but on the filesystem. The benefit is that deleting data from Orthanc then
  // immediately releases the bulk disk storage (else PostgreSQL keeps a claim on the disk storage).
  // The downside might be that PostgreSQL is not used to guarantee data integrity, but that should not
  // be crucial for a QC PACS.
  "PostgreSQL" : {
    "EnableIndex" : true,
    "EnableStorage" : false,
    "Host" : "localhost",
    "Port" : __PSQLPORT__,
    "Database" : "orthanc_db",
    "Username" : "orthanc",
    "Password" : "__ODBPSWD__"
  }
}
